…
## Fishing Activity by Vessel and Country

``` r
# now we will look at which ships had the most fishing hours in 2019 
vessel <- data %>% 
  filter(year == "2019") %>% # selecting year 2019
  group_by(mmsi) %>% # grouping my ship ID (mmsi)
  summarize(total_fishing_hours2019 = round(sum(fishing_hours)))%>% # summing fishing hours
  arrange(-total_fishing_hours2019) # ordering from greatest number of hours
print(vessel, n = 10) # top 10 ships with the most fishing hours
```

    ## # A tibble: 205 × 2
    ##         mmsi total_fishing_hours2019
    ##        <int>                   <dbl>
    ##  1 416000013                    1796
    ##  2 368012840                    1730
    ##  3 367716130                    1526
    ##  4 416367000                    1448
    ##  5 412420945                    1429
    ##  6 367449780                    1385
    ##  7 576850000                    1370
    ##  8 416002900                    1273
    ##  9 416000411                    1257
    ## 10 416111500                    1241
    ## # … with 195 more rows
…
